###############################################################
#  Generated by:      Cadence Innovus 17.11-s080_1
#  OS:                Linux x86_64(Host ID lab1-12.eng.utah.edu)
#  Generated on:      Fri Nov 30 15:21:27 2018
#  Design:            top_pad
#  Command:           report_timing > ${rpt_dir}/timing_final.rpt
###############################################################
Path 1: VIOLATED Setup Check with Pin des_top/encryptor/R_reg[2][21]/CLK 
Endpoint:   des_top/encryptor/R_reg[2][21]/D (^) checked with  leading edge of 
'clk'
Beginpoint: des_top/cmd_reg/out_reg[2]/Q     (v) triggered by  leading edge of 
'clk'
Path Groups: {clk}
Analysis View: wc
Other End Arrival Time         -0.045
- Setup                         0.189
+ Phase Shift                  10.000
= Required Time                 9.766
- Arrival Time                  9.837
= Slack Time                   -0.071
     Clock Rise Edge                 0.000
     + Clock Network Latency (Prop)  0.027
     = Beginpoint Arrival Time       0.027
     +-----------------------------------------------------------------------------------------+ 
     |             Instance              |     Arc      |  Cell   | Delay | Arrival | Required | 
     |                                   |              |         |       |  Time   |   Time   | 
     |-----------------------------------+--------------+---------+-------+---------+----------| 
     | des_top/cmd_reg/out_reg[2]        | CLK ^        |         |       |   0.027 |   -0.045 | 
     | des_top/cmd_reg/out_reg[2]        | CLK ^ -> Q v | DFFQX1  | 0.266 |   0.293 |    0.221 | 
     | des_top/cmd_decoder/U6            | A v -> Z ^   | INVX2   | 0.099 |   0.392 |    0.320 | 
     | des_top/cmd_decoder/U12           | B ^ -> Z v   | NAND2X1 | 0.082 |   0.474 |    0.403 | 
     | des_top/cmd_decoder/U11           | B v -> Z ^   | NOR2X1  | 0.157 |   0.631 |    0.560 | 
     | des_top/U182                      | A ^ -> Z v   | INVX2   | 0.083 |   0.714 |    0.643 | 
     | des_top/cmd_decoder/U8            | B v -> Z ^   | NAND3X1 | 0.271 |   0.985 |    0.914 | 
     | des_top/FE_OCPC708_decrypt        | A ^ -> Z ^   | BUFX1   | 0.247 |   1.232 |    1.161 | 
     | des_top/U184                      | A ^ -> Z v   | INVX4   | 0.501 |   1.733 |    1.661 | 
     | des_top/encryptor/FE_OFC20_n83    | A v -> Z ^   | INVX1   | 0.409 |   2.142 |    2.071 | 
     | des_top/encryptor/FE_OFC22_n83    | A ^ -> Z v   | INVX8   | 0.342 |   2.485 |    2.413 | 
     | des_top/encryptor/U539            | A v -> Z ^   | INVX2   | 0.284 |   2.769 |    2.697 | 
     | des_top/encryptor/U15             | A ^ -> Z v   | INVX4   | 0.484 |   3.253 |    3.182 | 
     | des_top/encryptor/U1611           | B v -> Z ^   | NAND2X1 | 0.842 |   4.096 |    4.024 | 
     | des_top/encryptor/FE_OFC448_n1269 | A ^ -> Z ^   | BUFX1   | 0.690 |   4.785 |    4.714 | 
     | des_top/encryptor/FE_OFC449_n1269 | A ^ -> Z ^   | BUFX1   | 0.741 |   5.526 |    5.455 | 
     | des_top/encryptor/FE_OFC451_n1269 | A ^ -> Z ^   | BUFX1   | 0.655 |   6.181 |    6.110 | 
     | des_top/encryptor/FE_OFC454_n1269 | A ^ -> Z ^   | BUFX1   | 0.647 |   6.829 |    6.757 | 
     | des_top/encryptor/U887            | B ^ -> Z ^   | XOR2X1  | 0.758 |   7.586 |    7.515 | 
     | des_top/encryptor/U18806          | A ^ -> Z v   | NAND2X1 | 0.209 |   7.796 |    7.724 | 
     | des_top/encryptor/U18809          | B v -> Z ^   | NAND2X1 | 0.490 |   8.285 |    8.214 | 
     | des_top/encryptor/U73             | A ^ -> Z v   | INVX2   | 0.244 |   8.529 |    8.458 | 
     | des_top/encryptor/U6121           | B v -> Z ^   | NOR2X1  | 0.171 |   8.701 |    8.629 | 
     | des_top/encryptor/U53             | A ^ -> Z v   | INVX2   | 0.054 |   8.755 |    8.683 | 
     | des_top/encryptor/U6122           | C v -> Z ^   | NAND3X1 | 0.124 |   8.879 |    8.808 | 
     | des_top/encryptor/U6123           | B ^ -> Z v   | NOR2X1  | 0.085 |   8.964 |    8.893 | 
     | des_top/encryptor/U6124           | B v -> Z ^   | NOR2X1  | 0.081 |   9.046 |    8.974 | 
     | des_top/encryptor/U6140           | A ^ -> Z ^   | OR2X1   | 0.404 |   9.450 |    9.378 | 
     | des_top/encryptor/U1768           | A ^ -> Z ^   | XOR2X1  | 0.211 |   9.661 |    9.590 | 
     | des_top/encryptor/U1767           | B ^ -> Z ^   | AND2X1  | 0.176 |   9.837 |    9.765 | 
     | des_top/encryptor/R_reg[2][21]    | D ^          | DFFQBX1 | 0.000 |   9.837 |    9.766 | 
     +-----------------------------------------------------------------------------------------+ 

