 
****************************************
Report : area
Design : top_pad
Version: K-2015.06-SP5-6
Date   : Wed Nov 28 08:55:25 2018
****************************************

Library(s) Used:

    gtech (File: /uusoc/facility/cad_common/Synopsys/syn_vK-2015.06-SP5-6/libraries/syn/gtech.db)
    padlib_tsmc180_tt (File: /research/ece/lnis-teaching/Designkits/tsmc180nm/full_custom_lib/lib/padlib_tsmc180_tt_nldm.db)
    sclib_tsmc180_tt (File: /research/ece/lnis-teaching/Designkits/tsmc180nm/full_custom_lib/lib/sclib_tsmc180_tt_nldm.db)

Number of ports:                         1256
Number of nets:                         27795
Number of cells:                         9318
Number of combinational cells:           4479
Number of sequential cells:              4820
Number of macros/black boxes:               2
Number of buf/inv:                       1609
Number of references:                       6

Combinational area:              78601.491199
Buf/Inv area:                    78601.491199
Noncombinational area:               0.000000
Macro/Black Box area:            26136.000000
Net Interconnect area:      undefined  (No wire load specified)

Total cell area:                104737.491199
Total area:                 undefined

Information: This design contains unmapped logic. (RPT-7)
1
